"Energy,kcal",Protein,Total lipid (fat),"Carbohydrate, by difference",Water,"Sugars, total","Fiber, total dietary","Calcium, Ca","Iron, Fe","Magnesium, Mg","Phosphorus, P","Potassium, K","Sodium, Na","Zinc, Zn","Copper, Cu","Manganese, Mn","Selenium, Se","Vitamin A, RAE",Vitamin E (alpha-tocopherol),Vitamin D,Vitamin D3 (cholecalciferol),Vitamin D (D2 + D3),"Vitamin C, total ascorbic acid",Thiamin,Riboflavin,Niacin,Pantothenic acid,Vitamin B-6,Vitamin B-12,"Choline, total",Vitamin K (phylloquinone),"Folate, DFE",Tryptophan,Threonine,Isoleucine,Leucine,Lysine,Methionine,Cystine,Phenylalanine,Tyrosine,Valine,Histidine,Cholesterol,"18:2 n-6 c,c","18:3 n-3 c,c,c (ALA)"
2600,50.8,0,130,0,0,31.5,1000,13,355,700,4700,1500,9.5,0.9,2.05,55,800,15,600,0,15,82.5,1.15,1.2,15,5,1.3,2.4,487.5,105,400,0.3175,1.27,1.2065,2.667,2.413,0,0,0,0,0.254,0.889,0,14.5,1.35
2600,9999999,9999999,9999999,9999999,9999999,9999999,2500,45,9999999,4000,9999999,2300,40,10,11,400,3000,1000,4000,9999999,100,2000,9999999,9999999,35,9999999,100,9999999,3500,9999999,1000,9999999,9999999,9999999,9999999,9999999,9999999,9999999,9999999,9999999,9999999,9999999,300,9999999,9999999
